{
  "pokemonTypes": [
    "Grass",
    "Poison",
    "Fire",
    "Flying",
    "Water",
    "Bug",
    "Normal",
    "Electric",
    "Ground",
    "Fairy",
    "Fighting",
    "Psychic",
    "Rock",
    "Steel",
    "Ice",
    "Ghost",
    "Dragon"
  ],
  "data": {
    "limit": 10,
    "offset": 0,
    "count": 151,
    "items": [
      {
        "id": "001",
        "number": 1,
        "name": "Bulbasaur",
        "image": "https://img.pokemondb.net/artwork/bulbasaur.jpg",
        "isFavorite": false,
        "types": ["Grass", "Poison"]
      },
      {
        "id": "002",
        "number": 2,
        "name": "Ivysaur",
        "image": "https://img.pokemondb.net/artwork/ivysaur.jpg",
        "isFavorite": false,
        "types": ["Grass", "Poison"]
      },
      {
        "id": "003",
        "number": 3,
        "name": "Venusaur",
        "image": "https://img.pokemondb.net/artwork/venusaur.jpg",
        "isFavorite": false,
        "types": ["Grass", "Poison"]
      },
      {
        "id": "004",
        "number": 4,
        "name": "Charmander",
        "image": "https://img.pokemondb.net/artwork/charmander.jpg",
        "isFavorite": false,
        "types": ["Fire"]
      },
      {
        "id": "005",
        "number": 5,
        "name": "Charmeleon",
        "image": "https://img.pokemondb.net/artwork/charmeleon.jpg",
        "isFavorite": false,
        "types": ["Fire"]
      },
      {
        "id": "006",
        "number": 6,
        "name": "Charizard",
        "image": "https://img.pokemondb.net/artwork/charizard.jpg",
        "isFavorite": false,
        "types": ["Fire", "Flying"]
      },
      {
        "id": "007",
        "number": 7,
        "name": "Squirtle",
        "image": "https://img.pokemondb.net/artwork/squirtle.jpg",
        "isFavorite": false,
        "types": ["Water"]
      },
      {
        "id": "008",
        "number": 8,
        "name": "Wartortle",
        "image": "https://img.pokemondb.net/artwork/wartortle.jpg",
        "isFavorite": false,
        "types": ["Water"]
      },
      {
        "id": "009",
        "number": 9,
        "name": "Blastoise",
        "image": "https://img.pokemondb.net/artwork/blastoise.jpg",
        "isFavorite": true,
        "types": ["Water"]
      },
      {
        "id": "010",
        "number": 10,
        "name": "Caterpie",
        "image": "https://img.pokemondb.net/artwork/caterpie.jpg",
        "isFavorite": false,
        "types": ["Bug"]
      }
    ]
  }
}
